<svg fill-rule="evenodd" version="1.1" viewBox="0 0 16 16" xmlns="http://www.w3.org/2000/svg">
 <path d="m12.566952 3.2164212v1.624613c-0.324925-0.324923-0.613743-0.541537-1.010871-0.758152-0.216613-0.144409-0.397126-0.216614-0.649843-0.324923-0.613744-0.252716-1.155281-0.361025-1.805127-0.361025h-0.288814c-0.685948 0-1.263587 0.144411-1.841226 0.505435-0.361026 0.180513-0.61374 0.397128-0.866461 0.6859479-0.144407 0.1805121-0.252715 0.361024-0.397125 0.541537-0.433231 0.8303581-0.649847 1.588508-0.649847 2.5271731v0.685946c0 0.938665 0.216616 1.7329198 0.685947 2.5271748 0.10831 0.216616 0.216618 0.361025 0.361024 0.541538 0.252718 0.288819 0.505436 0.505434 0.866462 0.722048 0.577639 0.324923 1.155278 0.469333 1.841225 0.469333h0.288815c0.649846 0 1.191383-0.108308 1.805126-0.361026 0.252717-0.07222 0.43323-0.18051 0.649843-0.288817 0.397129-0.252719 0.685947-0.469333 1.010872-0.758153v1.588508c-0.144412 0.07223-0.252719 0.180511-0.397128 0.252716-0.43323 0.252717-0.830356 0.397129-1.299689 0.541538-0.649845 0.216615-1.191381 0.288819-1.87733 0.288819h-0.324915c-0.97477 0-1.769024-0.216614-2.635481-0.685947-0.43323-0.252718-0.758152-0.505434-1.119176-0.866458-0.252718-0.324922-0.469333-0.613743-0.685948-0.974767-0.541537-0.938664-0.794255-1.8773298-0.794255-2.9965068v-0.685946c0-1.083076 0.252718-2.021738 0.794255-2.996505 0.216615-0.361025 0.433228-0.6137421 0.685948-0.938665 0.361024-0.361024 0.685946-0.613742 1.155277-0.86646 0.830356-0.505435 1.660714-0.722049 2.63548-0.722049h0.324936c0.649843 0 1.227485 0.108307 1.841228 0.288819 0.469331 0.144411 0.866457 0.288822 1.299686 0.541537 0.14441 0.10831 0.252718 0.180512 0.39713 0.252717z" stroke-width=".03610247"/>
</svg>
