<svg fill-rule="evenodd" version="1.1" viewBox="0 0 16 16" xmlns="http://www.w3.org/2000/svg">
 <path d="m10.372605 8.00051 2.800055-4.83498 1.353003 4.83498-1.353064 4.83383zm-1.3647135 0.78519 2.8004195 4.83419-4.8771314-1.24943-3.5233966-3.58476zm2.7998105-6.40597-2.7998105 4.83498h-5.6001085l3.5233966-3.58499zm3.997228 3.97533-1.70821-6.35504-6.375902 1.70314-0.9438214 1.65936-1.9151493-0.0137-4.6667773 4.65213 4.6667773 4.65103h1.831e-4l1.9143564-0.0142 0.9451631 1.65936 6.3751701 1.70284 1.708149-6.35382-0.970108-1.64564 0.970108-1.64539z" stroke-width=".06099008"/>
</svg>
