<svg version="1.1" viewBox="0 0 16 16" xmlns="http://www.w3.org/2000/svg">
 <path d="M 8,0.03101538 1.162042,4.026892 v 7.968985 L 8,15.968985 l 6.830558,-4.041414 0.0074,-7.855142 z M 14.235161,11.586043 8,15.274545 1.7602851,11.647518 V 4.3729736 L 8,0.72545547 14.241992,4.4139569 Z" fill="#000000" stroke-width=".56921321"/>
 <polygon transform="matrix(.56921319 0 0 .56921319 -1.107411 -1.107411)" points="25.569 13.654 19.946 16.964 19.943 24.89 25.59 21.565" fill="#0d8fe8"/>
 <polygon transform="matrix(.56921319 0 0 .56921319 -1.107411 -1.107411)" points="19.946 16.964 19.943 24.89 17.327 23.37 17.348 15.875 23.282 12.303 25.569 13.654" fill="#1e9cef"/>
 <polygon transform="matrix(.56921319 0 0 .56921319 -1.107411 -1.107411)" points="16.411 15.498 16.418 23.597 14.998 24.431 14.994 14.856 22.512 10.35 22.514 11.816" fill="#65a41e"/>
 <polygon transform="matrix(.56921319 0 0 .56921319 -1.107411 -1.107411)" points="14.994 14.856 14.998 24.431 12.194 22.801 12.189 13.413 20.008 8.871 22.512 10.35" fill="#6aab20"/>
 <polygon transform="matrix(.56921319 0 0 .56921319 -1.107411 -1.107411)" points="11.21 13.074 11.21 23.172 9.808 23.988 9.835 12.277 19.226 6.606 19.226 8.374" fill="#ce2827"/>
 <polygon transform="matrix(.56921319 0 0 .56921319 -1.107411 -1.107411)" points="6.529 22.071 9.827 23.988 9.835 12.277 19.235 6.606 16.16 4.784 6.53 10.394" fill="#d52a29"/>
</svg>
