<svg fill-rule="evenodd" viewBox="0 0 16 16" xmlns="http://www.w3.org/2000/svg">
 <path d="m7.921 0.714c-0.182 0.694-1.736 1.138-1.843 2.019l-0.175-0.526c-0.914 1.165-0.834 1.755-0.834 1.755l-0.076-0.422c-0.667 1.116-0.526 1.663-0.449 1.83l0.032 0.057s-0.014-0.018-0.032-0.057l-0.176-0.31c-0.693 1.918-0.087 2.507-0.087 2.507l-0.373-0.433c-0.164 1.469 0.263 2.073 0.263 2.073l-0.268-0.252c-0.034 0.998 0.62 1.591 0.62 1.591l-0.431-0.295c0.829 3.625 2.477 3.723 2.69 3.72l-0.656 0.021c0.438 0.468 0.997 0.65 1.375 0.721 0.206-1.093 0.395-3.741 0.424-10.68 0.028 6.938 0.218 9.586 0.424 10.68 0.378-0.071 0.937-0.253 1.375-0.721l-0.656-0.021c0.212 3e-3 1.86-0.095 2.689-3.72l-0.431 0.295s0.654-0.592 0.62-1.591l-0.268 0.252s0.428-0.604 0.263-2.073l-0.373 0.433s0.605-0.588-0.087-2.507l-0.175 0.31c-0.018 0.039-0.032 0.057-0.032 0.057l0.032-0.057c0.077-0.167 0.218-0.714-0.449-1.83l-0.076 0.422s0.081-0.59-0.834-1.755l-0.175 0.526c-0.107-0.88-1.661-1.324-1.843-2.019z"/>
</svg>
