<svg fill-rule="evenodd" viewBox="0 0 16 16" xmlns="http://www.w3.org/2000/svg">
 <path d="m11.5 4.9c-1.6 0-2.8 1.2-3.5 2.1-0.6-0.9-1.9-2.1-3.5-2.1-1.7 0-3.1 1.4-3.1 3.1s1.4 3.1 3.1 3.1c1.6 0 2.8-1.3 3.5-2.1 0.7 0.8 1.9 2.1 3.5 2.1 1.7 0 3.1-1.4 3.1-3.1s-1.4-3.1-3.1-3.1zm-7 5c-1.1 0-1.9-0.8-1.9-1.9s0.8-1.9 1.9-1.9c1.3 0 2.4 1.3 2.8 1.9-0.5 0.6-1.5 1.9-2.8 1.9zm7 0c-1.3 0-2.4-1.3-2.8-1.9 0.5-0.6 1.5-1.9 2.8-1.9 1.1 0 1.9 0.8 1.9 1.9s-0.8 1.9-1.9 1.9zm-7.7-2.3h1.8v0.6h-1.8v-0.6zm8.4 0h-0.6v-0.6h-0.6v0.6h-0.6v0.6h0.6v0.6h0.6v-0.6h0.6v-0.6z"/>
</svg>
