<svg fill-rule="evenodd" viewBox="0 0 16 16" xmlns="http://www.w3.org/2000/svg">
 <path d="M8.254,8.364A1.483,1.483,0,0,1,10.1,6.7v3.356C8.99,10.325,8.207,9.666,8.254,8.364ZM1.011,1.011V14.989H14.989V1.011H1.011ZM5.865,11.085H4.686V3.8H5.865v7.287Zm3.689,0.091a2.4,2.4,0,0,1-2.51-2.751A2.67,2.67,0,0,1,10.1,5.613V3.8h1.21v6.546a2.165,2.165,0,0,0,.037.4A3.727,3.727,0,0,1,9.554,11.176Z"/>
</svg>
