<svg fill-rule="evenodd" viewBox="0 0 16 16" xmlns="http://www.w3.org/2000/svg">
 <path transform="translate(0)" d="M14.3,3.072L9.75,6.038V3.815A0.85,0.85,0,0,0,8.875,3h-7A0.85,0.85,0,0,0,1,3.815V11.17a0.85,0.85,0,0,0,.875.817h7A0.85,0.85,0,0,0,9.75,11.17V8.947l4.55,2.966a0.448,0.448,0,0,0,.7-0.335V3.407A0.448,0.448,0,0,0,14.3,3.072Z"/>
</svg>
