<svg fill-rule="evenodd" version="1.1" viewBox="0 0 16 16" xmlns="http://www.w3.org/2000/svg">
 <path d="m14.160001 8.042515c0-0.1876245-0.138621-0.2958172-0.308729-0.2420629l-11.702545 3.7120919c-0.1704502 0.0541-0.3087273 0.250282-0.3087273 0.437563v3.793923c0 0.187625 0.1382771 0.29616 0.3087273 0.242063l11.702545-3.71175c0.170108-0.0541 0.308729-0.250281 0.308729-0.437905z" fill="#de7e00" stroke-width="1.1792454"/>
 <path d="m1.8399995 7.9426676c0 0.1876135 0.1382579 0.383786 0.3086845 0.4378788l11.702633 3.7122126c0.170425 0.05409 0.308684-0.05443 0.308684-0.241705v-3.7940379c0-0.1872712-0.138259-0.3834436-0.308684-0.4375367l-11.702633-3.7122124c-0.1704266-0.0540929-0.3086845 0.0540929-0.3086845 0.2417064z" fill="#ff9800" stroke-width="1.1792454"/>
 <path d="m14.160001 0.25597024c0-0.18762477-0.138621-0.29615956-0.308729-0.24206333l-11.702545 3.7117508c-0.1704502 0.0540964-0.3087273 0.2502808-0.3087273 0.4379053v3.7939224c0 0.1876245 0.1382771 0.2958171 0.3087273 0.2420634l11.702545-3.7120935c0.170108-0.054097 0.308729-0.2502804 0.308729-0.4375627z" fill="#f58e00" stroke-width="1.1792454"/>
</svg>
