<svg fill-rule="evenodd" viewBox="0 0 16 16" xmlns="http://www.w3.org/2000/svg">
 <path d="m8.96413 4.5252805c0.472336-0.4446052 0.944673-0.8892104 1.417009-1.3338156 1.403537 1.6231261 2.807075 3.2462522 4.210612 4.8693783-1.403537 1.6231259-2.807075 3.2462518-4.210612 4.8693778-0.467879-0.455151-0.935758-0.910303-1.403637-1.365454 1.029512-1.167975 2.059023-2.3359492 3.088535-3.5039238-1.033969-1.1785209-2.067938-2.3570418-3.101907-3.5355627z"/>
 <path d="m7.0193727 4.5252805c-0.4723363-0.4446052-0.9446727-0.8892104-1.417009-1.3338156-1.4035374 1.6231261-2.8070747 3.2462522-4.2106121 4.8693783 1.4035374 1.6231263 2.8070747 3.2462528 4.2106121 4.8693788 0.467879-0.455151 0.935758-0.910303 1.403637-1.365454-1.0295117-1.167975-2.0590233-2.3359499-3.088535-3.5039248 1.033969-1.1785209 2.067938-2.3570418 3.101907-3.5355627z"/>
</svg>
