<svg fill-rule="evenodd" viewBox="0 0 16 16" xmlns="http://www.w3.org/2000/svg">
 <path d="M4.18,13H3.063L2.74,12.815V3.268H2.2L2,3.071V2.232L2.216,2H6.5L6.766,2.259V3.054L6.559,3.3H6.09V7.25L10.126,3.3H9.459l-0.234-.25V2.214l0.216-.2h4.342L14,2.232V3.018Z"/>
</svg>
