<svg fill-rule="evenodd" version="1.1" viewBox="0 0 16 16" xmlns="http://www.w3.org/2000/svg">
 <path d="m8.0556389 3.2021187s-0.5364579 0.4239374-1.0833449 0.844996c-0.562586-0.0178729-1.6660186 0.108097-2.2639354 0.3255431-0.5507725-0.3489343-1.0347375-0.7341903-1.0347375-0.7341903s-0.4135552 0.7114596-0.6736121 1.1289789c-0.3856964 0.2051259-0.7729345 0.4358454-1.1180619 0.7411118-0.4014271-0.1593974-0.8667671-0.3537478-0.8819471-0.3601659 0.531597 1.0722548 0.8889786 2.1459567 1.8610771 2.7912224 1.5477253-2.4443646 8.7398739-2.2191036 10.319532-0.0138586 1.02091-0.5324936 1.417964-1.6781312 1.819391-2.7358509-0.044023 0.0145034-0.590319 0.1974022-0.94446 0.3324643-0.211434-0.2302003-0.709808-0.5841212-0.993067-0.7549703-0.268677-0.4920032-0.659738-1.1566803-0.659738-1.1566803s-0.46317 0.3444825-1.000005 0.7203316c-0.725271-0.1338792-1.6024671-0.2965516-2.3402282-0.2562815-0.5022595-0.4128316-1.0069576-0.8727132-1.0069576-0.8727132z" stroke-width=".63971186"/>
 <path d="m1.5494984 7.4273348s0.7534758 1.824425 1.2767671 3.0921472c2.2173733 2.925404 7.8797285 3.128799 10.348318 0.05664 0.584137-1.3164555 1.37222-3.1665526 1.37222-3.1665526-0.633294 0.9381835-1.663974 1.5857931-2.2987 1.9346958-0.451057 0.2470951-1.491787 0.3964563-1.491787 0.3964563l-2.7323905-1.41592-2.7479638 1.3875884s-1.0269036-0.1649817-1.4917875-0.3822982c-0.938278-0.5008755-1.5693391-1.092626-2.2346768-1.9027632z" stroke-width=".63971186"/>
</svg>
