<svg fill-rule="evenodd" viewBox="0 0 16 16" xmlns="http://www.w3.org/2000/svg">
 <path d="m7.9909886 9.1474317c0.231864-0.1440303 0.386669-0.4925723 0.69543-0.4325155 0.160513-0.033238 0.68234 0.068052 0.606746-0.053095-0.180899-0.2292032-0.495931-0.1750778-0.751455-0.2466511-0.227374-0.3854044 0.542859-0.080317 0.297393-0.2863668-0.173436-0.1948491-0.521789-0.079519-0.455301-0.4425583 0.01732-0.2181265 0.144186-0.4114027 0.05612-0.6817064l-0.121074-1.4659201c-0.120224 0.4969734-0.09 1.010609-0.121931 1.5173613-0.157474 0.2656665-0.485572 0.061164-0.418531-0.2028059-0.02317-0.4398244-0.0067-0.8840414-0.1139-1.3145554-0.05261 0.6369757-0.105222 1.2739511-0.157833 1.9109268 0.181751 0.097441 0.128775 0.5823165-0.113608 0.5472925-0.30497 0.063599-0.429393 0.3038621-0.01753 0.2100333 0.276611 0.1672294-0.174801 0.2945486-0.374202 0.2844825-0.2585 0.023804-0.519759 0.3279864-0.08875 0.2235626 0.26557 0.030162 0.591787-0.1003014 0.770096 0.160972 0.102777 0.090515 0.205554 0.181029 0.30833 0.2715435z"/>
 <path d="m9.4023386 7.4007729c-0.125663 0.4305889 0.7586414 0.7430721 0.342249 1.1578215-0.198129 0.1617016-0.332868 0.4755064-0.632886 0.392732-0.286988-0.082308-0.437605 0.1702585-0.621828 0.3403015-0.04088 0.270774-0.338274 0.1413838-0.55213 0.1690983-0.286433 0.056668-0.381808-0.030873-0.517955-0.2443531-0.157947-0.2209968-0.366339-0.3178847-0.636136-0.2636919-0.277732 0.025477-0.401818-0.3177074-0.609107-0.4612514-0.269356-0.4386742 0.673334-0.7524025 0.350284-1.1464507-2.008039-1.8149929-4.016078-3.629986-6.024118-5.4449791 0.0096 0.7143482-0.09282 1.5821428 0.564269 2.0630016 0.79505 0.3503981 0.463557 1.1387461 0.686808 1.7889535 0.532088 0.5287479 1.137879 0.9578075 0.931882 1.8036245 0.273188 0.7896179 1.102915 1.2264537 1.642282 1.8312999 0.235458 0.2080288-0.431647 0.062374-0.616533 0.1056842h-1.199559c0.720521 0.6435243 1.441042 1.2870483 2.161562 1.9305713h2.366135c-0.107398 0.246606-0.232118 0.463471-0.53609 0.372567h-1.439189c0.214587 0.159032 0.401168 0.393673 0.632296 0.508044h1.497429c0.267119-0.525093 0.534237-1.050186 0.801356-1.575277 0.272764 0.525092 0.545528 1.050184 0.818292 1.575278h1.5153284c0.197234-0.169348 0.394469-0.338696 0.591703-0.508044h-1.7419164c-0.172387-0.246607-0.293712-0.463473 0.113397-0.372567h2.0488414c0.712957-0.643524 1.425913-1.287048 2.13887-1.9305723h-1.930571c0.571261-0.5978633 1.314024-1.0733312 1.727311-1.7989874 0.06068-0.6119623-0.08793-1.2534702 0.601906-1.5656256 0.706001-0.348929 0.287048-1.2465955 0.591148-1.7384136 0.575567-0.4569155 1.125554-1.0583525 1.011717-1.8563454 0.04913-0.4545964 0.03553-0.7889232-0.325907-0.3336819-1.917047 1.7337544-3.834095 3.4675087-5.7511404 5.2012631z"/>
 <path d="m8.0072466 11.76251c-0.254813 0.607509-0.509626 1.215018-0.764438 1.822526 0.175218 0.170138 0.350438 0.340278 0.525657 0.510416-0.148393 0.416521-0.25826 1.586619 0.360811 1.372421 0.602801-0.383338-0.199455-1.169892 0.3093-1.541001 0.173848-0.182476 0.442781-0.347122 0.219337-0.604096-0.216889-0.520089-0.433778-1.040178-0.650667-1.560266z"/>
</svg>
