<svg fill-rule="evenodd" viewBox="0 0 16 16" xmlns="http://www.w3.org/2000/svg">
 <path d="m3.1649001 15.108877c-0.12971-0.06541-0.2016831-0.137382-0.2670918-0.267092-0.083267-0.165124-0.089536-0.229316-0.089536-0.916775s0.00627-0.751651 0.089536-0.916775c0.065409-0.12971 0.1373818-0.201683 0.2670918-0.267092l0.1775557-0.08954h9.1188552l0.177555 0.08954c0.12971 0.06541 0.201683 0.137382 0.267092 0.267092 0.08326 0.165124 0.08954 0.229316 0.08954 0.916775s-0.0063 0.751651-0.08954 0.916775c-0.06541 0.12971-0.137382 0.201683-0.267092 0.267092l-0.177555 0.08953h-9.1188552zm0.9167748-3.334012c0-0.320418 0.052427-0.428425 0.4274216-0.880542 0.4257634-0.513327 0.7236413-0.9681122 0.9624572-1.4694318 0.176387-0.3702692 0.4008437-1.0281984 0.4008437-1.1749549 0-0.046396 0.3247173-0.055235 2.0294856-0.055235 1.7047682 0 2.0294852 0.00887 2.0294852 0.055235 0 0.1467565 0.2244578 0.8046857 0.4008448 1.1749549 0.238815 0.5013196 0.536693 0.9561048 0.962457 1.4694318 0.374994 0.452117 0.427421 0.560124 0.427421 0.880542v0.240041h-7.6404161zm0.6367014-4.85357v-0.6367014h0.632051l-0.1711665-0.2776238c-0.3452776-0.5600235-0.5144813-1.3352774-0.4327528-1.9827719 0.095826-0.7591791 0.3800192-1.3382995 0.9234017-1.8816816 0.5433824-0.543383 1.1225029-0.8275756 1.881682-0.9234019 0.6388958-0.08064 1.3805786 0.077504 1.9619417 0.4183295 0.3615277 0.2119488 0.9134466 0.7638671 1.1253956 1.1253948 0.340389 0.5806119 0.498993 1.323312 0.418528 1.9598464-0.05771 0.4564981-0.220724 0.9400601-0.432951 1.2842847l-0.171167 0.2776238h0.63205v1.2734029h-6.3670127z"/>
</svg>
