<svg version="1.1" viewBox="0 0 16 16" xmlns="http://www.w3.org/2000/svg">
 <circle cx="8" cy="7.9874468" r="1.25" stroke-width=".5"/>
 <path d="m8 10.853447a14.1925 14.1925 0 0 1-4.44-0.6 5.65 5.65 0 0 1-1.8285-0.9790003 1.7715 1.7715 0 0 1-0.7315-1.287c0-0.8265 0.908-1.6365 2.429-2.1665a14.3775 14.3775 0 0 1 4.571-0.674 14.337 14.337 0 0 1 4.511 0.662 5.688 5.688 0 0 1 1.769 0.933 1.6955 1.6955 0 0 1 0.72 1.2455c0 0.859-1.015 1.7295-2.65 2.2705003a14.4 14.4 0 0 1-4.35 0.5955zm0-5.1085003a13.974 13.974 0 0 0-4.3745 0.641c-1.4 0.4885-2.0275 1.1565-2.0275 1.6 0 0.464 0.6745 1.1935 2.1555 1.7a13.605 13.605 0 0 0 4.2465 0.5695003 13.8 13.8 0 0 0 4.1625-0.5650003c1.5375-0.5095 2.2375-1.24 2.2375-1.703a1.1635 1.1635 0 0 0-0.505-0.7865 5.097 5.097 0 0 0-1.5805-0.827 13.731 13.731 0 0 0-4.3145-0.629z" stroke-width=".5"/>
 <path d="m5.16 14.221947a1.3195 1.3195 0 0 1-0.668-0.164c-0.716-0.413-0.964-1.604-0.6635-3.1865a14.3775 14.3775 0 0 1 1.7-4.2965003 14.338 14.338 0 0 1 2.8265-3.577 5.688 5.688 0 0 1 1.692-1.0665 1.6955 1.6955 0 0 1 1.439 0c0.7445 0.429 0.991 1.743 0.6435 3.4295a14.403 14.403 0 0 1-1.658 4.0665 14.1925 14.1925 0 0 1-2.738 3.5465003 5.65 5.65 0 0 1-1.7615 1.0945 2.463 2.463 0 0 1-0.812 0.1535zm0.8865-7.3500003a13.974 13.974 0 0 0-1.63 4.1095003c-0.2765 1.4575-0.011 2.334 0.375 2.557 0.4 0.2315 1.371 0.012 2.55-1.018a13.6045 13.6045 0 0 0 2.6135-3.3950003 13.8 13.8 0 0 0 1.5905-3.888c0.327-1.5875 0.0445-2.5595-0.3565-2.7905a1.1635 1.1635 0 0 0-0.934 0.0445 5.097 5.097 0 0 0-1.505 0.959 13.732 13.732 0 0 0-2.7 3.4245z" stroke-width=".5"/>
 <path d="m10.8385 14.228447c-0.6775 0-1.538-0.41-2.434-1.1805a14.378 14.378 0 0 1-2.8735-3.6185003 14.338 14.338 0 0 1-1.687-4.2355 5.688 5.688 0 0 1-0.079-2 1.6955 1.6955 0 0 1 0.717-1.2435c0.7435-0.4305 2.005 0.012 3.2925 1.155a14.4 14.4 0 0 1 2.695 3.467 14.192 14.192 0 0 1 1.705 4.1435003 5.65 5.65 0 0 1 0.0685 2.073 1.7715 1.7715 0 0 1-0.747 1.2775 1.295 1.295 0 0 1-0.6575 0.162zm-4.79-5.1000003a13.9745 13.9745 0 0 0 2.746 3.4645003c1.1245 0.9675 2.0165 1.1755 2.4 0.95 0.4-0.2325 0.695-1.1815 0.391-2.717a13.606 13.606 0 0 0-1.6355-3.9555003 13.8 13.8 0 0 0-2.5725-3.32c-1.212-1.076-2.195-1.3165-2.5955-1.0845a1.1635 1.1635 0 0 0-0.4275 0.831 5.097 5.097 0 0 0 0.0765 1.7825 13.7325 13.7325 0 0 0 1.618 4.05z" stroke-width=".5"/>
</svg>
